{
    "lists": [
      {
        "apiName": "AllContacts",
        "id": "00B0U000003OlMVUA0",
        "label": "AllContacts",
        "listUiUrl": "/services/data/v49.0/ui-api/list-ui/Contact/AllContacts"
      },
      {
        "apiName": "Few_Fields",
        "id": "00B0U000003OqMXUA0",
        "label": "Few Fields",
        "listUiUrl": "/services/data/v49.0/ui-api/list-ui/Contact/Few_Fields"
      }
    ],
    "count": 2,
    "currentPageToken": "0",
    "currentPageUrl": "/services/data/v49.0/ui-api/list-ui/Contact?pageSize=20&pageToken=0",
    "nextPageToken": null,
    "nextPageUrl": null,
    "previousPageToken": null,
    "previousPageUrl": null,
    "objectApiName": "Contact",
    "pageSize": 20,
    "queryString": null,
    "recentListsOnly": false
  }